{
  "amendments": [
    {
      "congress": 118,
      "description": "An amendment numbered 4 printed in Part B of House Report 118-466 to eliminate all non-military funding related to Ukraine.",
      "latestAction": {
        "actionDate": "2024-04-20",
        "actionTime": "13:36:48",
        "text": "On agreeing to the Cammack amendment (A003) Failed by recorded vote: 154 - 272 (Roll no. 149)."
      },
      "number": "893",
      "purpose": "Amendment sought to eliminate all non-military funding related to Ukraine.",
      "type": "HAMDT",
      "updateDate": "2024-04-23T08:09:18Z",
      "url": "https://api.congress.gov/v3/amendment/118/hamdt/893?format=json"
    }
  ],
  "pagination": {
    "count": 894,
    "next": "https://api.congress.gov/v3/amendment/118/hamdt?offset=20&limit=20&format=json"
  },
  "request": {
    "amendmentType": "hamdt",
    "congress": "118",
    "contentType": "application/json",
    "format": "json"
  }
}