{
  "amendments": [
    {
      "congress": 118,
      "description": "An amendment numbered 2 printed in Part D of House Report 118-466 to require the Treasury Department to report and brief Congress identifying all assets of the Iranian Government or covered persons valued at more than $5 million and requires a list of all licenses, statements of licensing policy, action letters, and all other sanction exemptions relating to Iran.",
      "latestAction": {
        "actionDate": "2024-04-20",
        "actionTime": "13:09:39",
        "text": "On agreeing to the Nunn (IA) amendment (A002) Agreed to by recorded vote: 249 - 167 (Roll no. 144)."
      },
      "number": "889",
      "purpose": "Amendment requires the Treasury Department to report and brief Congress identifying all assets of the Iranian Government or covered persons valued at more than $5 million and requires a list of all licenses, statements of licensing policy, action letters, and all other sanction exemptions relating to Iran.",
      "type": "HAMDT",
      "updateDate": "2024-04-23T08:09:18Z",
      "url": "https://api.congress.gov/v3/amendment/118/hamdt/889?format=json"
    }
  ],
  "pagination": {
    "count": 119872,
    "next": "https://api.congress.gov/v3/amendment?offset=20&limit=20&format=json"
  },
  "request": {
    "contentType": "application/json",
    "format": "json"
  }
}