{
  "boundCongressionalRecord": [
    {
      "congress": 101,
      "date": "1990-04-03",
      "sessionNumber": 2,
      "updateDate": "2024-04-04",
      "url": "https://api.congress.gov/v3/bound-congressional-record/1990/4/3?format=json",
      "volumeNumber": 136
    },
    {
      "congress": 101,
      "date": "1990-04-04",
      "sessionNumber": 2,
      "updateDate": "2024-04-04",
      "url": "https://api.congress.gov/v3/bound-congressional-record/1990/4/4?format=json",
      "volumeNumber": 136
    },
    {
      "congress": 101,
      "date": "1990-04-04",
      "sessionNumber": 2,
      "updateDate": "2024-04-04",
      "url": "https://api.congress.gov/v3/bound-congressional-record/1990/4/4?format=json",
      "volumeNumber": 136
    },
    {
      "congress": 101,
      "date": "1990-04-04",
      "sessionNumber": 2,
      "updateDate": "2024-04-04",
      "url": "https://api.congress.gov/v3/bound-congressional-record/1990/4/4?format=json",
      "volumeNumber": 136
    },
    {
      "congress": 101,
      "date": "1990-04-04",
      "sessionNumber": 2,
      "updateDate": "2024-04-04",
      "url": "https://api.congress.gov/v3/bound-congressional-record/1990/4/4?format=json",
      "volumeNumber": 136
    },
    {
      "congress": 101,
      "date": "1990-04-05",
      "sessionNumber": 2,
      "updateDate": "2024-04-04",
      "url": "https://api.congress.gov/v3/bound-congressional-record/1990/4/5?format=json",
      "volumeNumber": 136
    },
    {
      "congress": 101,
      "date": "1990-04-05",
      "sessionNumber": 2,
      "updateDate": "2024-04-04",
      "url": "https://api.congress.gov/v3/bound-congressional-record/1990/4/5?format=json",
      "volumeNumber": 136
    },
    {
      "congress": 101,
      "date": "1990-04-18",
      "sessionNumber": 2,
      "updateDate": "2024-04-04",
      "url": "https://api.congress.gov/v3/bound-congressional-record/1990/4/18?format=json",
      "volumeNumber": 136
    },
    {
      "congress": 101,
      "date": "1990-04-18",
      "sessionNumber": 2,
      "updateDate": "2024-04-04",
      "url": "https://api.congress.gov/v3/bound-congressional-record/1990/4/18?format=json",
      "volumeNumber": 136
    },
    {
      "congress": 101,
      "date": "1990-04-18",
      "sessionNumber": 2,
      "updateDate": "2024-04-04",
      "url": "https://api.congress.gov/v3/bound-congressional-record/1990/4/18?format=json",
      "volumeNumber": 136
    },
    {
      "congress": 101,
      "date": "1990-04-18",
      "sessionNumber": 2,
      "updateDate": "2024-04-04",
      "url": "https://api.congress.gov/v3/bound-congressional-record/1990/4/18?format=json",
      "volumeNumber": 136
    },
    {
      "congress": 101,
      "date": "1990-04-19",
      "sessionNumber": 2,
      "updateDate": "2024-04-04",
      "url": "https://api.congress.gov/v3/bound-congressional-record/1990/4/19?format=json",
      "volumeNumber": 136
    },
    {
      "congress": 101,
      "date": "1990-04-19",
      "sessionNumber": 2,
      "updateDate": "2024-04-04",
      "url": "https://api.congress.gov/v3/bound-congressional-record/1990/4/19?format=json",
      "volumeNumber": 136
    },
    {
      "congress": 101,
      "date": "1990-04-19",
      "sessionNumber": 2,
      "updateDate": "2024-04-04",
      "url": "https://api.congress.gov/v3/bound-congressional-record/1990/4/19?format=json",
      "volumeNumber": 136
    },
    {
      "congress": 101,
      "date": "1990-04-03",
      "sessionNumber": 2,
      "updateDate": "2024-04-04",
      "url": "https://api.congress.gov/v3/bound-congressional-record/1990/4/3?format=json",
      "volumeNumber": 136
    },
    {
      "congress": 101,
      "date": "1990-04-03",
      "sessionNumber": 2,
      "updateDate": "2024-04-04",
      "url": "https://api.congress.gov/v3/bound-congressional-record/1990/4/3?format=json",
      "volumeNumber": 136
    },
    {
      "congress": 101,
      "date": "1990-04-03",
      "sessionNumber": 2,
      "updateDate": "2024-04-04",
      "url": "https://api.congress.gov/v3/bound-congressional-record/1990/4/3?format=json",
      "volumeNumber": 136
    },
    {
      "congress": 101,
      "date": "1990-04-30",
      "sessionNumber": 2,
      "updateDate": "2024-04-17",
      "url": "https://api.congress.gov/v3/bound-congressional-record/1990/4/30?format=json",
      "volumeNumber": 136
    },
    {
      "congress": 101,
      "date": "1990-04-30",
      "sessionNumber": 2,
      "updateDate": "2024-04-17",
      "url": "https://api.congress.gov/v3/bound-congressional-record/1990/4/30?format=json",
      "volumeNumber": 136
    },
    {
      "congress": 101,
      "date": "1990-04-30",
      "sessionNumber": 2,
      "updateDate": "2024-04-17",
      "url": "https://api.congress.gov/v3/bound-congressional-record/1990/4/30?format=json",
      "volumeNumber": 136
    }
  ],
  "pagination": {
    "count": 59,
    "next": "https://api.congress.gov/v3/bound-congressional-record/1990/4?offset=20&limit=20&format=json"
  },
  "request": {
    "contentType": "application/json",
    "format": "json",
    "month": "4",
    "year": "1990"
  }
}