{
  "members": [
    {
      "bioguideId": "P000604",
      "depiction": {
        "attribution": "Image courtesy of the Member",
        "imageUrl": "https://www.congress.gov/img/member/p000604_200.jpg"
      },
      "district": 10,
      "name": "Payne, Donald M.",
      "partyName": "Democratic",
      "state": "New Jersey",
      "terms": {
        "item": [
          {
            "chamber": "House of Representatives",
            "endYear": 2024,
            "startYear": 2012
          }
        ]
      },
      "updateDate": "2024-05-24T18:54:35Z",
      "url": "https://api.congress.gov/v3/member/P000604?format=json"
    }
  ],
  "pagination": {
    "count": 2520,
    "next": "https://api.congress.gov/v3/member?offset=20&limit=20&format=json"
  },
  "request": {
    "contentType": "application/json",
    "format": "json"
  }
}