{
  "members": [
    {
      "bioguideId": "L000581",
      "depiction": {
        "attribution": "Image courtesy of the Member",
        "imageUrl": "https://www.congress.gov/img/member/l000581_200.jpg"
      },
      "district": 14,
      "name": "Lawrence, Brenda L.",
      "partyName": "Democratic",
      "state": "Michigan",
      "terms": {
        "item": [
          {
            "chamber": "House of Representatives",
            "endYear": 2023,
            "startYear": 2015
          }
        ]
      },
      "updateDate": "2023-01-26T16:10:43Z",
      "url": "https://api.congress.gov/v3/member/L000581?format=json"
    }
  ],
  "pagination": {
    "count": 87,
    "next": "https://api.congress.gov/v3/member/MI?offset=20&limit=20&format=json"
  },
  "request": {
    "contentType": "application/json",
    "format": "json"
  }
}