{
  "bills": [
    {
      "congress": 118,
      "latestAction": {
        "actionDate": "2024-05-24",
        "text": "Signed by President."
      },
      "number": "546",
      "originChamber": "Senate",
      "originChamberCode": "S",
      "title": "Recruit and Retain Act",
      "type": "S",
      "updateDate": "2024-05-24",
      "updateDateIncludingText": "2024-05-24T16:55:47Z",
      "url": "https://api.congress.gov/v3/bill/118/s/546?format=json"
    },
    {
      "congress": 118,
      "latestAction": {
        "actionDate": "2024-05-23",
        "text": "Presented to President."
      },
      "number": "109",
      "originChamber": "House",
      "originChamberCode": "H",
      "title": "Providing for congressional disapproval under chapter 8 of title 5, United States Code, of the rule submitted by the Securities and Exchange Commission relating to \"Staff Accounting Bulletin No. 121\".",
      "type": "HJRES",
      "updateDate": "2024-05-25",
      "updateDateIncludingText": "2024-05-25T00:35:35Z",
      "url": "https://api.congress.gov/v3/bill/118/hjres/109?format=json"
    },
    {
      "congress": 118,
      "latestAction": {
        "actionDate": "2024-05-23",
        "text": "Passed Senate without amendment by Voice Vote. (consideration: CR S3897)"
      },
      "number": "2365",
      "originChamber": "House",
      "originChamberCode": "H",
      "title": "Dr. Emmanuel Bilirakis National Plan to End Parkinson’s Act",
      "type": "HR",
      "updateDate": "2024-05-24",
      "updateDateIncludingText": "2024-05-24T13:41:20Z",
      "url": "https://api.congress.gov/v3/bill/118/hr/2365?format=json"
    },
    {
      "congress": 118,
      "latestAction": {
        "actionDate": "2024-05-23",
        "text": "Referred to the Committee on Health, Education, Labor, and Pensions. (text: CR S3893-3894)"
      },
      "number": "714",
      "originChamber": "Senate",
      "originChamberCode": "S",
      "title": "A resolution recognizing and supporting individuals born with congenital disabilities or malformations due to thalidomide exposure.",
      "type": "SRES",
      "updateDate": "2024-05-24",
      "updateDateIncludingText": "2024-05-24T13:29:50Z",
      "url": "https://api.congress.gov/v3/bill/118/sres/714?format=json"
    },
    {
      "congress": 118,
      "latestAction": {
        "actionDate": "2024-05-23",
        "text": "Referred to the Committee on the Judiciary. (text: CR S3893)"
      },
      "number": "713",
      "originChamber": "Senate",
      "originChamberCode": "S",
      "title": "A resolution designating May 2024 as \"ALS Awareness Month\".",
      "type": "SRES",
      "updateDate": "2024-05-24",
      "updateDateIncludingText": "2024-05-24T13:28:59Z",
      "url": "https://api.congress.gov/v3/bill/118/sres/713?format=json"
    },
    {
      "congress": 118,
      "latestAction": {
        "actionDate": "2024-05-23",
        "text": "Submitted in the Senate, considered, and agreed to without amendment and with a preamble by Unanimous Consent. (consideration: CR S3905; text: CR S3893)"
      },
      "number": "712",
      "originChamber": "Senate",
      "originChamberCode": "S",
      "title": "A resolution designating May 2024 as \"Older Americans Month\".",
      "type": "SRES",
      "updateDate": "2024-05-24",
      "updateDateIncludingText": "2024-05-24T13:28:19Z",
      "url": "https://api.congress.gov/v3/bill/118/sres/712?format=json"
    },
    {
      "congress": 118,
      "latestAction": {
        "actionDate": "2024-05-23",
        "text": "Read twice and referred to the Committee on Homeland Security and Governmental Affairs."
      },
      "number": "4434",
      "originChamber": "Senate",
      "originChamberCode": "S",
      "title": "A bill to improve retrospective reviews of Federal regulations, and for other purposes.",
      "type": "S",
      "updateDate": "2024-05-24",
      "updateDateIncludingText": "2024-05-24T10:56:24Z",
      "url": "https://api.congress.gov/v3/bill/118/s/4434?format=json"
    },
    {
      "congress": 118,
      "latestAction": {
        "actionDate": "2024-05-23",
        "text": "Read twice and referred to the Committee on Commerce, Science, and Transportation."
      },
      "number": "4435",
      "originChamber": "Senate",
      "originChamberCode": "S",
      "title": "A bill to limit and eliminate excessive, hidden, and unnecessary fees imposed on incarcerated individuals and their families, and for other purposes.",
      "type": "S",
      "updateDate": "2024-05-24",
      "updateDateIncludingText": "2024-05-24T10:56:24Z",
      "url": "https://api.congress.gov/v3/bill/118/s/4435?format=json"
    },
    {
      "congress": 118,
      "latestAction": {
        "actionDate": "2024-05-23",
        "text": "Read twice and referred to the Committee on Commerce, Science, and Transportation."
      },
      "number": "4428",
      "originChamber": "Senate",
      "originChamberCode": "S",
      "title": "A bill to establish an interagency committee to coordinate activities of the Federal Government relating to biotechnology oversight, and for other purposes.",
      "type": "S",
      "updateDate": "2024-05-24",
      "updateDateIncludingText": "2024-05-24T10:56:25Z",
      "url": "https://api.congress.gov/v3/bill/118/s/4428?format=json"
    },
    {
      "congress": 118,
      "latestAction": {
        "actionDate": "2024-05-23",
        "text": "Read twice and referred to the Committee on Energy and Natural Resources."
      },
      "number": "4432",
      "originChamber": "Senate",
      "originChamberCode": "S",
      "title": "A bill to allow certain Federal minerals to be mined consistent with the Bull Mountains Mining Plan Modification.",
      "type": "S",
      "updateDate": "2024-05-24",
      "updateDateIncludingText": "2024-05-24T10:56:24Z",
      "url": "https://api.congress.gov/v3/bill/118/s/4432?format=json"
    },
    {
      "congress": 118,
      "latestAction": {
        "actionDate": "2024-05-23",
        "text": "Read twice and referred to the Committee on Energy and Natural Resources."
      },
      "number": "4431",
      "originChamber": "Senate",
      "originChamberCode": "S",
      "title": "A bill to reinstate the Bull Mountains Mining Plan Modification, and for other purposes.",
      "type": "S",
      "updateDate": "2024-05-24",
      "updateDateIncludingText": "2024-05-24T10:56:25Z",
      "url": "https://api.congress.gov/v3/bill/118/s/4431?format=json"
    },
    {
      "congress": 118,
      "latestAction": {
        "actionDate": "2024-05-23",
        "text": "Read twice and referred to the Committee on Foreign Relations."
      },
      "number": "4433",
      "originChamber": "Senate",
      "originChamberCode": "S",
      "title": "A bill to enhance United States cooperation with European countries to improve the security of Taiwan, and for other purposes.",
      "type": "S",
      "updateDate": "2024-05-24",
      "updateDateIncludingText": "2024-05-24T10:56:25Z",
      "url": "https://api.congress.gov/v3/bill/118/s/4433?format=json"
    },
    {
      "congress": 118,
      "latestAction": {
        "actionDate": "2024-05-23",
        "text": "Read twice and referred to the Committee on Health, Education, Labor, and Pensions."
      },
      "number": "4429",
      "originChamber": "Senate",
      "originChamberCode": "S",
      "title": "A bill to require the Secretary of Health and Human Services to provide grants to demonstrate pharmacy-based addiction care programs.",
      "type": "S",
      "updateDate": "2024-05-24",
      "updateDateIncludingText": "2024-05-24T10:56:25Z",
      "url": "https://api.congress.gov/v3/bill/118/s/4429?format=json"
    },
    {
      "congress": 118,
      "latestAction": {
        "actionDate": "2024-05-23",
        "text": "Read twice and referred to the Committee on Finance."
      },
      "number": "4430",
      "originChamber": "Senate",
      "originChamberCode": "S",
      "title": "A bill to amend title XIX of the Social Security Act to establish a Health Engagement Hub demonstration program to increase access to treatment for opiate use disorder and other drug use treatment, and for other purposes.",
      "type": "S",
      "updateDate": "2024-05-24",
      "updateDateIncludingText": "2024-05-24T10:56:25Z",
      "url": "https://api.congress.gov/v3/bill/118/s/4430?format=json"
    },
    {
      "congress": 118,
      "latestAction": {
        "actionDate": "2024-05-23",
        "text": "Placed on the Union Calendar, Calendar No. 436."
      },
      "number": "1166",
      "originChamber": "House",
      "originChamberCode": "H",
      "title": "Public Health Emergency Medical Supplies Enhancement Act of 2023",
      "type": "HR",
      "updateDate": "2024-05-25",
      "updateDateIncludingText": "2024-05-25T00:35:45Z",
      "url": "https://api.congress.gov/v3/bill/118/hr/1166?format=json"
    },
    {
      "congress": 118,
      "latestAction": {
        "actionDate": "2024-05-23",
        "text": "Placed on the Union Calendar, Calendar No. 435."
      },
      "number": "555",
      "originChamber": "House",
      "originChamberCode": "H",
      "title": "SAVE Act of 2023",
      "type": "HR",
      "updateDate": "2024-05-25",
      "updateDateIncludingText": "2024-05-25T00:35:53Z",
      "url": "https://api.congress.gov/v3/bill/118/hr/555?format=json"
    },
    {
      "congress": 118,
      "latestAction": {
        "actionDate": "2024-05-23",
        "text": "Ordered to be Reported in the Nature of a Substitute (Amended) by the Yeas and Nays: 6 - 1."
      },
      "number": "8281",
      "originChamber": "House",
      "originChamberCode": "H",
      "title": "To amend the National Voter Registration Act of 1993 to require proof of United States citizenship to register an individual to vote in elections for Federal office, and for other purposes.",
      "type": "HR",
      "updateDate": "2024-05-25",
      "updateDateIncludingText": "2024-05-25T00:35:48Z",
      "url": "https://api.congress.gov/v3/bill/118/hr/8281?format=json"
    },
    {
      "congress": 118,
      "latestAction": {
        "actionDate": "2024-05-23",
        "text": "Ordered to be Reported in the Nature of a Substitute by the Yeas and Nays: 6 - 1."
      },
      "number": "8399",
      "originChamber": "House",
      "originChamberCode": "H",
      "title": "To amend the Federal Election Campaign Act of 1971 to further restrict contributions of foreign nationals, and for other purposes.",
      "type": "HR",
      "updateDate": "2024-05-25",
      "updateDateIncludingText": "2024-05-25T00:35:18Z",
      "url": "https://api.congress.gov/v3/bill/118/hr/8399?format=json"
    },
    {
      "congress": 118,
      "latestAction": {
        "actionDate": "2024-05-23",
        "text": "Referred to the Committee on the Judiciary. (text: CR S3892-3893)"
      },
      "number": "711",
      "originChamber": "Senate",
      "originChamberCode": "S",
      "title": "A resolution designating May 2024 as \"American Stroke Month\".",
      "type": "SRES",
      "updateDate": "2024-05-24",
      "updateDateIncludingText": "2024-05-24T13:25:27Z",
      "url": "https://api.congress.gov/v3/bill/118/sres/711?format=json"
    },
    {
      "congress": 118,
      "latestAction": {
        "actionDate": "2024-05-23",
        "text": "Read twice and referred to the Committee on Energy and Natural Resources."
      },
      "number": "4427",
      "originChamber": "Senate",
      "originChamberCode": "S",
      "title": "A bill to provide for Department of Energy and Small Business Administration joint research and development activities, and for other purposes.",
      "type": "S",
      "updateDate": "2024-05-24",
      "updateDateIncludingText": "2024-05-24T10:56:26Z",
      "url": "https://api.congress.gov/v3/bill/118/s/4427?format=json"
    }
  ],
  "pagination": {
    "count": 406527,
    "next": "https://api.congress.gov/v3/bill?offset=20&limit=20&format=json"
  },
  "request": {
    "contentType": "application/json",
    "format": "json"
  }
}