{
  "bills": [
    {
      "congress": 117,
      "latestAction": {
        "actionDate": "2023-01-05",
        "text": "Became Public Law No: 117-335."
      },
      "number": "989",
      "originChamber": "Senate",
      "originChamberCode": "S",
      "title": "Native American Language Resource Center Act of 2022",
      "type": "S",
      "updateDate": "2024-04-17",
      "updateDateIncludingText": "2024-04-17T23:44:49Z",
      "url": "https://api.congress.gov/v3/bill/117/s/989?format=json"
    },
    {
      "congress": 117,
      "latestAction": {
        "actionDate": "2023-01-05",
        "text": "Became Public Law No: 117-329."
      },
      "number": "897",
      "originChamber": "House",
      "originChamberCode": "H",
      "title": "Agua Caliente Land Exchange Fee to Trust Confirmation Act",
      "type": "HR",
      "updateDate": "2024-04-17",
      "updateDateIncludingText": "2024-04-17T23:44:57Z",
      "url": "https://api.congress.gov/v3/bill/117/hr/897?format=json"
    },
    {
      "congress": 117,
      "latestAction": {
        "actionDate": "2023-01-05",
        "text": "Became Public Law No: 117-333."
      },
      "number": "7939",
      "originChamber": "House",
      "originChamberCode": "H",
      "title": "Veterans Auto and Education Improvement Act of 2022",
      "type": "HR",
      "updateDate": "2024-04-17",
      "updateDateIncludingText": "2024-04-17T23:44:31Z",
      "url": "https://api.congress.gov/v3/bill/117/hr/7939?format=json"
    },
    {
      "congress": 117,
      "latestAction": {
        "actionDate": "2023-01-05",
        "text": "Became Private Law No: 117-3."
      },
      "number": "680",
      "originChamber": "House",
      "originChamberCode": "H",
      "title": "For the relief of Arpita Kurdekar, Girish Kurdekar, and Vandana Kurdekar.",
      "type": "HR",
      "updateDate": "2024-04-17",
      "updateDateIncludingText": "2024-04-17T23:42:58Z",
      "url": "https://api.congress.gov/v3/bill/117/hr/680?format=json"
    },
    {
      "congress": 117,
      "latestAction": {
        "actionDate": "2023-01-05",
        "text": "Became Public Law No: 117-362."
      },
      "number": "5329",
      "originChamber": "Senate",
      "originChamberCode": "S",
      "title": "A bill to amend the Bill Emerson Good Samaritan Food Donation Act to improve the program, and for other purposes.",
      "type": "S",
      "updateDate": "2024-04-17",
      "updateDateIncludingText": "2024-04-17T23:44:49Z",
      "url": "https://api.congress.gov/v3/bill/117/s/5329?format=json"
    },
    {
      "congress": 117,
      "latestAction": {
        "actionDate": "2023-01-05",
        "text": "Became Public Law No: 117-361."
      },
      "number": "5328",
      "originChamber": "Senate",
      "originChamberCode": "S",
      "title": "A bill to amend the Farm Security and Rural Investment Act of 2002 to extend terminal lakes assistance.",
      "type": "S",
      "updateDate": "2024-04-17",
      "updateDateIncludingText": "2024-04-17T23:45:19Z",
      "url": "https://api.congress.gov/v3/bill/117/s/5328?format=json"
    },
    {
      "congress": 117,
      "latestAction": {
        "actionDate": "2023-01-05",
        "text": "Became Public Law No: 117-360."
      },
      "number": "5168",
      "originChamber": "Senate",
      "originChamberCode": "S",
      "title": "Energy Security and Lightering Independence Act of 2022",
      "type": "S",
      "updateDate": "2024-03-13",
      "updateDateIncludingText": "2024-03-13T02:44:27Z",
      "url": "https://api.congress.gov/v3/bill/117/s/5168?format=json"
    },
    {
      "congress": 117,
      "latestAction": {
        "actionDate": "2023-01-05",
        "text": "Became Public Law No: 117-359."
      },
      "number": "5087",
      "originChamber": "Senate",
      "originChamberCode": "S",
      "title": "A bill to amend the Not Invisible Act of 2019 to extend, and provide additional support for, the activities of the Department of the Interior and the Department of Justice Joint Commission on Reducing Violent Crime Against Indians, and for other purposes.",
      "type": "S",
      "updateDate": "2024-02-20",
      "updateDateIncludingText": "2024-02-20T13:57:18Z",
      "url": "https://api.congress.gov/v3/bill/117/s/5087?format=json"
    },
    {
      "congress": 117,
      "latestAction": {
        "actionDate": "2023-01-05",
        "text": "Became Public Law No: 117-358."
      },
      "number": "5066",
      "originChamber": "Senate",
      "originChamberCode": "S",
      "title": "Don Young Recognition Act",
      "type": "S",
      "updateDate": "2024-02-16",
      "updateDateIncludingText": "2024-02-16T19:19:39Z",
      "url": "https://api.congress.gov/v3/bill/117/s/5066?format=json"
    },
    {
      "congress": 117,
      "latestAction": {
        "actionDate": "2023-01-05",
        "text": "Became Public Law No: 117-357."
      },
      "number": "5016",
      "originChamber": "Senate",
      "originChamberCode": "S",
      "title": "Colonel Mary Louise Rasmuson Campus of the Alaska VA Healthcare System Act of 2022",
      "type": "S",
      "updateDate": "2024-02-09",
      "updateDateIncludingText": "2024-02-09T18:29:17Z",
      "url": "https://api.congress.gov/v3/bill/117/s/5016?format=json"
    },
    {
      "congress": 117,
      "latestAction": {
        "actionDate": "2023-01-05",
        "text": "Became Public Law No: 117-356."
      },
      "number": "4978",
      "originChamber": "Senate",
      "originChamberCode": "S",
      "title": "State Offices of Rural Health Program Reauthorization Act of 2022",
      "type": "S",
      "updateDate": "2024-04-17",
      "updateDateIncludingText": "2024-04-17T23:45:03Z",
      "url": "https://api.congress.gov/v3/bill/117/s/4978?format=json"
    },
    {
      "congress": 117,
      "latestAction": {
        "actionDate": "2023-01-05",
        "text": "Became Public Law No: 117-355."
      },
      "number": "4949",
      "originChamber": "Senate",
      "originChamberCode": "S",
      "title": "National Cemeteries Preservation and Protection Act of 2022",
      "type": "S",
      "updateDate": "2024-03-13",
      "updateDateIncludingText": "2024-03-13T02:11:15Z",
      "url": "https://api.congress.gov/v3/bill/117/s/4949?format=json"
    },
    {
      "congress": 117,
      "latestAction": {
        "actionDate": "2023-01-05",
        "text": "Became Public Law No: 117-354."
      },
      "number": "4926",
      "originChamber": "Senate",
      "originChamberCode": "S",
      "title": "Respect for Child Survivors Act",
      "type": "S",
      "updateDate": "2024-03-14",
      "updateDateIncludingText": "2024-03-14T02:17:52Z",
      "url": "https://api.congress.gov/v3/bill/117/s/4926?format=json"
    },
    {
      "congress": 117,
      "latestAction": {
        "actionDate": "2023-01-05",
        "text": "Became Public Law No: 117-334."
      },
      "number": "450",
      "originChamber": "Senate",
      "originChamberCode": "S",
      "title": "Emmett Till and Mamie Till-Mobley Congressional Gold Medal Act of 2021",
      "type": "S",
      "updateDate": "2024-04-17",
      "updateDateIncludingText": "2024-04-17T23:43:32Z",
      "url": "https://api.congress.gov/v3/bill/117/s/450?format=json"
    },
    {
      "congress": 117,
      "latestAction": {
        "actionDate": "2023-01-05",
        "text": "Became Public Law No: 117-353."
      },
      "number": "4439",
      "originChamber": "Senate",
      "originChamberCode": "S",
      "title": "Katimiîn and Ameekyáaraam Sacred Lands Act",
      "type": "S",
      "updateDate": "2024-04-17",
      "updateDateIncludingText": "2024-04-17T23:45:26Z",
      "url": "https://api.congress.gov/v3/bill/117/s/4439?format=json"
    },
    {
      "congress": 117,
      "latestAction": {
        "actionDate": "2023-01-05",
        "text": "Became Public Law No: 117-352."
      },
      "number": "4411",
      "originChamber": "Senate",
      "originChamberCode": "S",
      "title": "A bill to designate the facility of the United States Postal Service located at 5302 Galveston Road in Houston, Texas, as the \"Vanessa Guillen Post Office Building\".",
      "type": "S",
      "updateDate": "2024-04-17",
      "updateDateIncludingText": "2024-04-17T23:44:45Z",
      "url": "https://api.congress.gov/v3/bill/117/s/4411?format=json"
    },
    {
      "congress": 117,
      "latestAction": {
        "actionDate": "2023-01-05",
        "text": "Became Public Law No: 117-351."
      },
      "number": "4240",
      "originChamber": "Senate",
      "originChamberCode": "S",
      "title": "Justice for Victims of War Crimes Act",
      "type": "S",
      "updateDate": "2024-03-13",
      "updateDateIncludingText": "2024-03-13T02:02:32Z",
      "url": "https://api.congress.gov/v3/bill/117/s/4240?format=json"
    },
    {
      "congress": 117,
      "latestAction": {
        "actionDate": "2023-01-05",
        "text": "Became Public Law No: 117-350."
      },
      "number": "4120",
      "originChamber": "Senate",
      "originChamberCode": "S",
      "title": "Childhood Cancer STAR Reauthorization Act",
      "type": "S",
      "updateDate": "2024-04-17",
      "updateDateIncludingText": "2024-04-17T23:45:03Z",
      "url": "https://api.congress.gov/v3/bill/117/s/4120?format=json"
    },
    {
      "congress": 117,
      "latestAction": {
        "actionDate": "2023-01-05",
        "text": "Became Public Law No: 117-349."
      },
      "number": "4104",
      "originChamber": "Senate",
      "originChamberCode": "S",
      "title": "Hualapai Tribe Water Rights Settlement Act of 2022",
      "type": "S",
      "updateDate": "2024-04-17",
      "updateDateIncludingText": "2024-04-17T23:45:29Z",
      "url": "https://api.congress.gov/v3/bill/117/s/4104?format=json"
    },
    {
      "congress": 117,
      "latestAction": {
        "actionDate": "2023-01-05",
        "text": "Became Public Law No: 117-348."
      },
      "number": "3949",
      "originChamber": "Senate",
      "originChamberCode": "S",
      "title": "Trafficking Victims Prevention and Protection Reauthorization Act of 2022",
      "type": "S",
      "updateDate": "2024-03-14",
      "updateDateIncludingText": "2024-03-14T04:01:02Z",
      "url": "https://api.congress.gov/v3/bill/117/s/3949?format=json"
    }
  ],
  "pagination": {
    "count": 17817,
    "next": "https://api.congress.gov/v3/bill/117?offset=20&limit=20&format=json"
  },
  "request": {
    "congress": "117",
    "contentType": "application/json",
    "format": "json"
  }
}