{
  "cosponsors": [
    {
      "bioguideId": "C001078",
      "district": 11,
      "firstName": "Gerald",
      "fullName": "Rep. Connolly, Gerald E. [D-VA-11]",
      "isOriginalCosponsor": true,
      "lastName": "Connolly",
      "middleName": "E.",
      "party": "D",
      "sponsorshipDate": "2021-05-11",
      "state": "VA",
      "url": "https://api.congress.gov/v3/member/C001078?format=json"
    },
    {
      "bioguideId": "F000450",
      "district": 5,
      "firstName": "Virginia",
      "fullName": "Rep. Foxx, Virginia [R-NC-5]",
      "isOriginalCosponsor": true,
      "lastName": "Foxx",
      "party": "R",
      "sponsorshipDate": "2021-05-11",
      "state": "NC",
      "url": "https://api.congress.gov/v3/member/F000450?format=json"
    },
    {
      "bioguideId": "C001108",
      "district": 1,
      "firstName": "James",
      "fullName": "Rep. Comer, James [R-KY-1]",
      "isOriginalCosponsor": true,
      "lastName": "Comer",
      "party": "R",
      "sponsorshipDate": "2021-05-11",
      "state": "KY",
      "url": "https://api.congress.gov/v3/member/C001108?format=json"
    },
    {
      "bioguideId": "L000562",
      "district": 8,
      "firstName": "Stephen",
      "fullName": "Rep. Lynch, Stephen F. [D-MA-8]",
      "isOriginalCosponsor": false,
      "lastName": "Lynch",
      "middleName": "F.",
      "party": "D",
      "sponsorshipDate": "2021-05-18",
      "state": "MA",
      "url": "https://api.congress.gov/v3/member/L000562?format=json"
    },
    {
      "bioguideId": "L000581",
      "district": 14,
      "firstName": "Brenda",
      "fullName": "Rep. Lawrence, Brenda L. [D-MI-14]",
      "isOriginalCosponsor": false,
      "lastName": "Lawrence",
      "middleName": "L.",
      "party": "D",
      "sponsorshipDate": "2021-05-18",
      "state": "MI",
      "url": "https://api.congress.gov/v3/member/L000581?format=json"
    },
    {
      "bioguideId": "H001068",
      "district": 2,
      "firstName": "Jared",
      "fullName": "Rep. Huffman, Jared [D-CA-2]",
      "isOriginalCosponsor": false,
      "lastName": "Huffman",
      "party": "D",
      "sponsorshipDate": "2021-05-25",
      "state": "CA",
      "url": "https://api.congress.gov/v3/member/H001068?format=json"
    },
    {
      "bioguideId": "T000460",
      "district": 5,
      "firstName": "MIKE",
      "fullName": "Rep. Thompson, Mike [D-CA-5]",
      "isOriginalCosponsor": false,
      "lastName": "THOMPSON",
      "party": "D",
      "sponsorshipDate": "2021-05-25",
      "state": "CA",
      "url": "https://api.congress.gov/v3/member/T000460?format=json"
    },
    {
      "bioguideId": "Y000033",
      "district": 0,
      "firstName": "DON",
      "fullName": "Rep. Young, Don [R-AK-At Large]",
      "isOriginalCosponsor": false,
      "lastName": "YOUNG",
      "middleName": "E.",
      "party": "R",
      "sponsorshipDate": "2021-05-25",
      "state": "AK",
      "url": "https://api.congress.gov/v3/member/Y000033?format=json"
    },
    {
      "bioguideId": "T000478",
      "district": 22,
      "firstName": "Claudia",
      "fullName": "Rep. Tenney, Claudia [R-NY-22]",
      "isOriginalCosponsor": false,
      "lastName": "Tenney",
      "party": "R",
      "sponsorshipDate": "2021-05-25",
      "state": "NY",
      "url": "https://api.congress.gov/v3/member/T000478?format=json"
    },
    {
      "bioguideId": "N000179",
      "district": 32,
      "firstName": "GRACE",
      "fullName": "Rep. Napolitano, Grace F. [D-CA-32]",
      "isOriginalCosponsor": false,
      "lastName": "NAPOLITANO",
      "middleName": "F.",
      "party": "D",
      "sponsorshipDate": "2021-06-04",
      "state": "CA",
      "url": "https://api.congress.gov/v3/member/N000179?format=json"
    },
    {
      "bioguideId": "M000317",
      "district": 11,
      "firstName": "Nicole",
      "fullName": "Rep. Malliotakis, Nicole [R-NY-11]",
      "isOriginalCosponsor": false,
      "lastName": "Malliotakis",
      "party": "R",
      "sponsorshipDate": "2021-06-04",
      "state": "NY",
      "url": "https://api.congress.gov/v3/member/M000317?format=json"
    },
    {
      "bioguideId": "K000396",
      "district": 2,
      "firstName": "Kaiali'i",
      "fullName": "Rep. Kahele, Kaiali'i [D-HI-2]",
      "isOriginalCosponsor": false,
      "lastName": "Kahele",
      "party": "D",
      "sponsorshipDate": "2021-06-04",
      "state": "HI",
      "url": "https://api.congress.gov/v3/member/K000396?format=json"
    },
    {
      "bioguideId": "S001196",
      "district": 21,
      "firstName": "Elise",
      "fullName": "Rep. Stefanik, Elise M. [R-NY-21]",
      "isOriginalCosponsor": false,
      "lastName": "Stefanik",
      "middleName": "M.",
      "party": "R",
      "sponsorshipDate": "2021-06-04",
      "state": "NY",
      "url": "https://api.congress.gov/v3/member/S001196?format=json"
    },
    {
      "bioguideId": "L000560",
      "district": 2,
      "firstName": "RICK",
      "fullName": "Rep. Larsen, Rick [D-WA-2]",
      "isOriginalCosponsor": false,
      "lastName": "LARSEN",
      "party": "D",
      "sponsorshipDate": "2021-06-04",
      "state": "WA",
      "url": "https://api.congress.gov/v3/member/L000560?format=json"
    },
    {
      "bioguideId": "G000597",
      "district": 2,
      "firstName": "Andrew",
      "fullName": "Rep. Garbarino, Andrew R. [R-NY-2]",
      "isOriginalCosponsor": false,
      "lastName": "Garbarino",
      "middleName": "R.",
      "party": "R",
      "sponsorshipDate": "2021-06-04",
      "state": "NY",
      "url": "https://api.congress.gov/v3/member/G000597?format=json"
    },
    {
      "bioguideId": "S001200",
      "district": 9,
      "firstName": "Darren",
      "fullName": "Rep. Soto, Darren [D-FL-9]",
      "isOriginalCosponsor": false,
      "lastName": "Soto",
      "party": "D",
      "sponsorshipDate": "2021-06-15",
      "state": "FL",
      "url": "https://api.congress.gov/v3/member/S001200?format=json"
    },
    {
      "bioguideId": "L000266",
      "district": 2,
      "firstName": "Jake",
      "fullName": "Rep. LaTurner, Jake [R-KS-2]",
      "isOriginalCosponsor": false,
      "lastName": "LaTurner",
      "party": "R",
      "sponsorshipDate": "2021-06-15",
      "state": "KS",
      "url": "https://api.congress.gov/v3/member/L000266?format=json"
    },
    {
      "bioguideId": "C001055",
      "district": 1,
      "firstName": "Ed",
      "fullName": "Rep. Case, Ed [D-HI-1]",
      "isOriginalCosponsor": false,
      "lastName": "Case",
      "party": "D",
      "sponsorshipDate": "2021-06-15",
      "state": "HI",
      "url": "https://api.congress.gov/v3/member/C001055?format=json"
    },
    {
      "bioguideId": "G000576",
      "district": 6,
      "firstName": "Glenn",
      "fullName": "Rep. Grothman, Glenn [R-WI-6]",
      "isOriginalCosponsor": false,
      "lastName": "Grothman",
      "party": "R",
      "sponsorshipDate": "2021-06-15",
      "state": "WI",
      "url": "https://api.congress.gov/v3/member/G000576?format=json"
    },
    {
      "bioguideId": "H001090",
      "district": 10,
      "firstName": "Josh",
      "fullName": "Rep. Harder, Josh [D-CA-10]",
      "isOriginalCosponsor": false,
      "lastName": "Harder",
      "party": "D",
      "sponsorshipDate": "2021-06-15",
      "state": "CA",
      "url": "https://api.congress.gov/v3/member/H001090?format=json"
    }
  ],
  "pagination": {
    "count": 102,
    "countIncludingWithdrawnCosponsors": 102,
    "next": "https://api.congress.gov/v3/bill/117/hr/3076/cosponsors?offset=20&limit=20&format=json"
  },
  "request": {
    "billNumber": "3076",
    "billType": "hr",
    "billUrl": "https://api.congress.gov/v3/bill/117/hr/3076?format=json",
    "congress": "117",
    "contentType": "application/json",
    "format": "json"
  }
}