{
  "articles": [
    {
      "name": "Daily Digest",
      "sectionArticles": [
        {
          "endPage": "D760",
          "startPage": "D759",
          "text": [
            {
              "type": "Formatted Text",
              "url": "https://www.congress.gov/116/crec/2020/09/04/modified/CREC-2020-09-04-pt1-PgD759.htm"
            },
            {
              "type": "PDF",
              "url": "https://www.congress.gov/116/crec/2020/09/04/CREC-2020-09-04-pt1-PgD759.pdf"
            }
          ],
          "title": "Daily Digest/Next Meeting of the SENATE + Next Meeting of the HOUSE OF REPRESENTATIVES + Other End Matter; Congressional Record Vol. 166, No. 153"
        }
      ]
    }
  ],
  "pagination": {
    "count": 67,
    "next": "https://api.congress.gov/v3/daily-congressional-record/166/153/articles?offset=20&limit=20&format=json"
  },
  "request": {
    "contentType": "application/json",
    "format": "json",
    "issueNumber": "153",
    "volumeNumber": "166"
  }
}