{
  "congresses": [
    {
      "endYear": "2022",
      "name": "117th Congress",
      "sessions": [
        {
          "chamber": "House of Representatives",
          "endDate": "2022-01-03",
          "number": 1,
          "startDate": "2021-01-03",
          "type": "R"
        },
        {
          "chamber": "Senate",
          "endDate": "2022-01-03",
          "number": 1,
          "startDate": "2021-01-03",
          "type": "R"
        },
        {
          "chamber": "House of Representatives",
          "endDate": "2023-01-03",
          "number": 2,
          "startDate": "2022-01-03",
          "type": "R"
        },
        {
          "chamber": "Senate",
          "endDate": "2023-01-03",
          "number": 2,
          "startDate": "2022-01-03",
          "type": "R"
        }
      ],
      "startYear": "2021",
      "url": "https://api.congress.gov/v3/congress/117?format=json"
    }
  ],
  "pagination": {
    "count": 118,
    "next": "https://api.congress.gov/v3/congress?offset=2&limit=1&format=json",
    "prev": "https://api.congress.gov/v3/congress?offset=0&limit=1&format=json"
  },
  "request": {
    "contentType": "application/json",
    "format": "json"
  }
}