{
  "hearings": [
    {
      "chamber": "House",
      "congress": 109,
      "jacketNumber": 28970,
      "updateDate": "2023-03-17T03:50:11Z",
      "url": "https://api.congress.gov/v3/hearing/109/house/28970"
    },
    {
      "chamber": "Senate",
      "congress": 107,
      "jacketNumber": 74367,
      "number": 97,
      "updateDate": "2023-03-17T03:54:35Z",
      "url": "https://api.congress.gov/v3/hearing/107/senate/74367"
    },
    {
      "chamber": "House",
      "congress": 117,
      "jacketNumber": 44717,
      "updateDate": "2023-10-18T10:49:34Z",
      "url": "https://api.congress.gov/v3/hearing/117/house/44717"
    },
    {
      "chamber": "Senate",
      "congress": 109,
      "jacketNumber": 28922,
      "number": 528,
      "updateDate": "2022-10-25T17:47:41Z",
      "url": "https://api.congress.gov/v3/hearing/109/senate/28922"
    },
    {
      "chamber": "House",
      "congress": 115,
      "jacketNumber": 26251,
      "number": 31,
      "updateDate": "2024-05-25T01:34:38Z",
      "url": "https://api.congress.gov/v3/hearing/115/house/26251"
    },
    {
      "chamber": "House",
      "congress": 104,
      "jacketNumber": 22271,
      "updateDate": "2024-03-12T07:55:51Z",
      "url": "https://api.congress.gov/v3/hearing/104/house/22271"
    },
    {
      "chamber": "House",
      "congress": 112,
      "jacketNumber": 76462,
      "updateDate": "2023-03-27T20:18:22Z",
      "url": "https://api.congress.gov/v3/hearing/112/house/76462"
    },
    {
      "chamber": "House",
      "congress": 115,
      "jacketNumber": 32514,
      "updateDate": "2022-07-08T03:49:17Z",
      "url": "https://api.congress.gov/v3/hearing/115/house/32514"
    },
    {
      "chamber": "House",
      "congress": 104,
      "jacketNumber": 20998,
      "updateDate": "2024-03-12T07:55:51Z",
      "url": "https://api.congress.gov/v3/hearing/104/house/20998"
    },
    {
      "chamber": "House",
      "congress": 114,
      "jacketNumber": 96954,
      "updateDate": "2024-05-10T03:49:54Z",
      "url": "https://api.congress.gov/v3/hearing/114/house/96954"
    },
    {
      "chamber": "Senate",
      "congress": 115,
      "jacketNumber": 29481,
      "number": 195,
      "updateDate": "2022-07-07T03:52:26Z",
      "url": "https://api.congress.gov/v3/hearing/115/senate/29481"
    },
    {
      "chamber": "Senate",
      "congress": 113,
      "jacketNumber": 49104581,
      "updateDate": "2021-07-04T10:50:36Z",
      "url": "https://api.congress.gov/v3/hearing/113/senate/49104581"
    },
    {
      "chamber": "House",
      "congress": 115,
      "jacketNumber": 32302,
      "updateDate": "2022-07-08T03:49:19Z",
      "url": "https://api.congress.gov/v3/hearing/115/house/32302"
    },
    {
      "chamber": "House",
      "congress": 113,
      "jacketNumber": 87962,
      "updateDate": "2021-07-04T10:49:50Z",
      "url": "https://api.congress.gov/v3/hearing/113/house/87962"
    },
    {
      "chamber": "House",
      "congress": 113,
      "jacketNumber": 87974,
      "updateDate": "2021-07-04T10:49:50Z",
      "url": "https://api.congress.gov/v3/hearing/113/house/87974"
    },
    {
      "chamber": "House",
      "congress": 113,
      "jacketNumber": 88017,
      "updateDate": "2021-07-04T10:49:50Z",
      "url": "https://api.congress.gov/v3/hearing/113/house/88017"
    },
    {
      "chamber": "Senate",
      "congress": 113,
      "jacketNumber": 49104574,
      "updateDate": "2021-07-04T10:50:36Z",
      "url": "https://api.congress.gov/v3/hearing/113/senate/49104574"
    },
    {
      "chamber": "Senate",
      "congress": 113,
      "jacketNumber": 96022,
      "number": 731,
      "updateDate": "2024-05-19T04:01:01Z",
      "url": "https://api.congress.gov/v3/hearing/113/senate/96022"
    },
    {
      "chamber": "House",
      "congress": 113,
      "jacketNumber": 85447,
      "updateDate": "2021-07-04T10:49:21Z",
      "url": "https://api.congress.gov/v3/hearing/113/house/85447"
    },
    {
      "chamber": "House",
      "congress": 116,
      "jacketNumber": 41197,
      "updateDate": "2022-12-29T03:34:18Z",
      "url": "https://api.congress.gov/v3/hearing/116/house/41197"
    }
  ],
  "pagination": {
    "count": 32800,
    "next": "https://api.congress.gov/v3/hearing?offset=20&limit=20&format=json"
  },
  "request": {
    "contentType": "application/json",
    "format": "json"
  }
}