{
  "bills": [
    {
      "congress": 117,
      "latestAction": {
        "actionDate": "2022-08-16",
        "text": "Became Public Law No: 117-169."
      },
      "laws": [
        {
          "number": "117-169",
          "type": "Public Law"
        }
      ],
      "number": "5376",
      "originChamber": "House",
      "originChamberCode": "H",
      "title": "Inflation Reduction Act of 2022",
      "type": "HR",
      "updateDate": "2024-04-17",
      "updateDateIncludingText": "2024-04-17T23:45:44Z",
      "url": "https://api.congress.gov/v3/bill/117/hr/5376?format=json"
    }
  ],
  "pagination": {
    "count": 365,
    "next": "https://api.congress.gov/v3/law/117?offset=20&limit=20&format=json"
  },
  "request": {
    "congress": "117",
    "contentType": "application/json",
    "format": "json"
  }
}