{
  "bills": [
    {
      "congress": 118,
      "latestAction": {
        "actionDate": "2024-05-13",
        "text": "Became Public Law No: 118-61."
      },
      "laws": [
        {
          "number": "118-61",
          "type": "Public Law"
        }
      ],
      "number": "593",
      "originChamber": "House",
      "originChamberCode": "H",
      "title": "To rename the Department of Veterans Affairs community-based outpatient clinic in Hinesville, Georgia, as the \"John Gibson, Dan James, William Sapp, and Frankie Smiley VA Clinic\".",
      "type": "HR",
      "updateDate": "2024-05-24",
      "updateDateIncludingText": "2024-05-24T18:49:45Z",
      "url": "https://api.congress.gov/v3/bill/118/hr/593?format=json"
    }
  ],
  "pagination": {
    "count": 63,
    "next": "https://api.congress.gov/v3/law/118/pub?offset=20&limit=20&format=json"
  },
  "request": {
    "congress": "118",
    "contentType": "application/json",
    "format": "json"
  }
}