{
  "cosponsors": [
    {
      "bioguideId": "C001078",
      "district": 11,
      "firstName": "Gerald",
      "fullName": "Rep. Connolly, Gerald E. [D-VA-11]",
      "isOriginalCosponsor": true,
      "lastName": "Connolly",
      "middleName": "E.",
      "party": "D",
      "sponsorshipDate": "2021-05-11",
      "state": "VA",
      "url": "https://api.congress.gov/v3/member/C001078?format=json"
    }
  ],
  "pagination": {
    "count": 102,
    "countIncludingWithdrawnCosponsors": 102,
    "next": "https://api.congress.gov/v3/bill/117/hr/3076/cosponsors?offset=20&limit=20&format=json"
  },
  "request": {
    "billNumber": "3076",
    "billType": "hr",
    "billUrl": "https://api.congress.gov/v3/bill/117/hr/3076?format=json",
    "congress": "117",
    "contentType": "application/json",
    "format": "json"
  }
}