{
  "bills": [
    {
      "congress": 118,
      "latestAction": {
        "actionDate": "2024-04-11",
        "actionTime": "17:01:10",
        "text": "Motion to reconsider laid on the table Agreed to without objection."
      },
      "number": "2560",
      "originChamber": "House",
      "originChamberCode": "H",
      "title": "Sea Turtle Rescue Assistance and Rehabilitation Act of 2023",
      "type": "HR",
      "updateDate": "2024-04-13",
      "updateDateIncludingText": "2024-04-13T02:20:17Z",
      "url": "https://api.congress.gov/v3/bill/118/hr/2560?format=json"
    }
  ],
  "pagination": {
    "count": 9698,
    "next": "https://api.congress.gov/v3/bill/117/hr?offset=20&limit=20&format=json"
  },
  "request": {
    "billType": "hr",
    "congress": "117",
    "contentType": "application/json",
    "format": "json"
  }
}